Homework I
…
3.請計算2015年每個球隊的平均薪資，以及2014年每個球隊的打擊資料(加總)，並將兩組資料根據 teamID 合併。

Q1.計算2015年每個球隊的平均薪資：

#1-3-Q1計算過程

library(Lahman)
data("AllstarFull")
data("Salaries")

y<-filter(Salaries,yearID==2015)%>% select(teamID,salary)%>%group_by(teamID) %>%summarise(salary_=mean(salary))

y            

# A tibble: 30 x 2
   teamID  salary_
   <fct>     <dbl>
 1 ARI    2132207.
 2 ATL    2990885.
 3 BAL    4108744.
 4 BOS    5659481.
 5 CHA    4161989.
 6 CHN    4138547.
 7 CIN    4187862.
 8 CLE    3022888.
 9 COL    3827544 
10 DET    6891390 
# … with 20 more rows

Q2.22014年每個球隊的打擊資料(加總)：

#1-3-Q2計算過程

data("Batting")

yy<-filter(Batting,yearID==2014)%>% select(-playerID,-yearID,-stint,-lgID) %>% group_by(teamID) %>%summarise_all(.funs = funs(sum))

yy

# A tibble: 30 x 18
   teamID     G    AB     R     H   X2B   X3B    HR   RBI    SB    CS    BB
   <fct>  <int> <int> <int> <int> <int> <int> <int> <int> <int> <int> <int>
 1 ARI     2274  5552   615  1379   259    47   118   573    86    33   398
 2 ATL     2252  5468   573  1316   240    22   123   545    95    33   472
 3 BAL     2294  5596   705  1434   264    16   211   681    44    20   401
 4 BOS     2283  5551   634  1355   282    20   123   601    63    25   535
 5 CHA     2285  5543   660  1400   279    32   155   625    85    36   417
 6 CHN     2358  5508   614  1315   270    31   157   590    65    40   442
 7 CIN     2213  5395   595  1282   254    20   131   562   122    52   415
 8 CLE     2391  5575   669  1411   284    23   142   644   104    27   504
 9 COL     2387  5612   755  1551   307    41   186   721    85    48   397
10 DET     2330  5630   757  1557   325    26   155   731   106    41   443
# … with 20 more rows, and 6 more variables: SO <int>, IBB <int>,
#   HBP <int>, SH <int>, SF <int>, GIDP <int>
…
Problem 4

1. Please predict both salary and HR by using H and then calculate the corresponding residuals e_salary and e_HR.

#4-1計算過程
tbl_Salaries <- tbl_df(Salaries) 

tbl_s <- tbl_Salaries %>% filter(yearID == 2015) %>% select(-yearID) %>% mutate(salary = salary/10000)

tbl_Batting <- tbl_df(Batting) 

tbl_Batting %>% filter(yearID == 2014) %>% select(-yearID, -stint, -teamID, -lgID)

# A tibble: 1,435 x 18
   playerID     G    AB     R     H   X2B   X3B    HR   RBI    SB    CS
   <chr>    <int> <int> <int> <int> <int> <int> <int> <int> <int> <int>
 1 abadfe01    69     0     0     0     0     0     0     0     0     0
 2 abreubo…    78   133    12    33     9     0     1    14     1     0
 3 abreujo…   145   556    80   176    35     2    36   107     3     1
 4 abreuto…     3     4     0     0     0     0     0     0     0     0
 5 aceveal…    10     0     0     0     0     0     0     0     0     0
 6 achteaj…     7     0     0     0     0     0     0     0     0     0
 7 ackledu…   143   502    64   123    27     4    14    65     8     4
 8 adamecr…     7    15     1     1     0     0     0     0     0     0
 9 adamsau…     6     0     0     0     0     0     0     0     0     0
10 adamsla…     6     3     1     0     0     0     0     0     0     0
# … with 1,425 more rows, and 7 more variables: BB <int>, SO <int>,
#   IBB <int>, HBP <int>, SH <int>, SF <int>, GIDP <int>
…
e_HR<- lm_fit %>% residuals() 

2. Use e_HR to predict e_salary and report the slope estimate.

#4-2計算過程
tbl_Salaries <- tbl_df(Salaries) 

tbl_s <- tbl_Salaries %>% filter(yearID == 2015) %>% select(-yearID) %>% mutate(salary = salary/10000)

tbl_Batting <- tbl_df(Batting) 

tbl_Batting %>% filter(yearID == 2014) %>% select(-yearID, -stint, -teamID, -lgID)

# A tibble: 1,435 x 18
   playerID     G    AB     R     H   X2B   X3B    HR   RBI    SB    CS
   <chr>    <int> <int> <int> <int> <int> <int> <int> <int> <int> <int>
 1 abadfe01    69     0     0     0     0     0     0     0     0     0
 2 abreubo…    78   133    12    33     9     0     1    14     1     0
 3 abreujo…   145   556    80   176    35     2    36   107     3     1
 4 abreuto…     3     4     0     0     0     0     0     0     0     0
 5 aceveal…    10     0     0     0     0     0     0     0     0     0
 6 achteaj…     7     0     0     0     0     0     0     0     0     0
 7 ackledu…   143   502    64   123    27     4    14    65     8     4
 8 adamecr…     7    15     1     1     0     0     0     0     0     0
 9 adamsau…     6     0     0     0     0     0     0     0     0     0
10 adamsla…     6     3     1     0     0     0     0     0     0     0
# … with 1,425 more rows, and 7 more variables: BB <int>, SO <int>,
#   IBB <int>, HBP <int>, SH <int>, SF <int>, GIDP <int>
…
The slope of e_HR Estimate : 1.389e+01

3. Now, predict salary by using both H and HR. Report the slope of HR and compare it with the slope obtained in 2.

#4-3計算過程
tbl_Salaries <- tbl_df(Salaries) 

tbl_s <- tbl_Salaries %>% filter(yearID == 2015) %>% select(-yearID) %>% mutate(salary = salary/10000)

tbl_Batting <- tbl_df(Batting) 

tbl_Batting %>% filter(yearID == 2014) %>% select(-yearID, -stint, -teamID, -lgID)

# A tibble: 1,435 x 18
   playerID     G    AB     R     H   X2B   X3B    HR   RBI    SB    CS
   <chr>    <int> <int> <int> <int> <int> <int> <int> <int> <int> <int>
 1 abadfe01    69     0     0     0     0     0     0     0     0     0
 2 abreubo…    78   133    12    33     9     0     1    14     1     0
 3 abreujo…   145   556    80   176    35     2    36   107     3     1
 4 abreuto…     3     4     0     0     0     0     0     0     0     0
 5 aceveal…    10     0     0     0     0     0     0     0     0     0
 6 achteaj…     7     0     0     0     0     0     0     0     0     0
 7 ackledu…   143   502    64   123    27     4    14    65     8     4
 8 adamecr…     7    15     1     1     0     0     0     0     0     0
 9 adamsau…     6     0     0     0     0     0     0     0     0     0
10 adamsla…     6     3     1     0     0     0     0     0     0     0
# … with 1,425 more rows, and 7 more variables: BB <int>, SO <int>,
#   IBB <int>, HBP <int>, SH <int>, SF <int>, GIDP <int>
…
